module gitlab.com/peterbradford/gpioscheduler

go 1.22

require (
	github.com/eclipse/paho.mqtt.golang v1.4.1
	github.com/getsentry/sentry-go v0.10.0
	github.com/gin-contrib/cors v1.3.1
	github.com/gin-contrib/timeout v0.0.3
	github.com/gin-gonic/contrib v0.0.0-20201101042839-6a891bf89f19
	github.com/gin-gonic/gin v1.9.0
	github.com/go-ozzo/ozzo-validation v3.6.0+incompatible
	github.com/joho/godotenv v1.3.0
	github.com/robfig/cron/v3 v3.0.1
	github.com/rs/zerolog v1.29.1
	github.com/spf13/viper v1.6.2
	github.com/stianeikeland/go-rpio v4.2.0+incompatible
	github.com/stretchr/testify v1.8.1
)

require (
	github.com/asaskevich/govalidator v0.0.0-20200428143746-21a406dcc535 // indirect
	github.com/bytedance/sonic v1.8.0 // indirect
	github.com/chenzhuoyu/base64x v0.0.0-20221115062448-fe3a3abad311 // indirect
	github.com/davecgh/go-spew v1.1.1 // indirect
	github.com/fsnotify/fsnotify v1.4.7 // indirect
	github.com/gin-contrib/sse v0.1.0 // indirect
	github.com/go-playground/locales v0.14.1 // indirect
	github.com/go-playground/universal-translator v0.18.1 // indirect
	github.com/go-playground/validator/v10 v10.11.2 // indirect
	github.com/goccy/go-json v0.10.0 // indirect
	github.com/gorilla/websocket v1.4.2 // indirect
	github.com/hashicorp/hcl v1.0.0 // indirect
	github.com/json-iterator/go v1.1.12 // indirect
	github.com/klauspost/cpuid/v2 v2.0.9 // indirect
	github.com/leodido/go-urn v1.2.1 // indirect
	github.com/magiconair/properties v1.8.1 // indirect
	github.com/mattn/go-colorable v0.1.12 // indirect
	github.com/mattn/go-isatty v0.0.17 // indirect
	github.com/mitchellh/mapstructure v1.1.2 // indirect
	github.com/modern-go/concurrent v0.0.0-20180306012644-bacd9c7ef1dd // indirect
	github.com/modern-go/reflect2 v1.0.2 // indirect
	github.com/pelletier/go-toml v1.2.0 // indirect
	github.com/pelletier/go-toml/v2 v2.0.6 // indirect
	github.com/pkg/errors v0.9.1 // indirect
	github.com/pmezard/go-difflib v1.0.0 // indirect
	github.com/spf13/afero v1.1.2 // indirect
	github.com/spf13/cast v1.3.0 // indirect
	github.com/spf13/jwalterweatherman v1.0.0 // indirect
	github.com/spf13/pflag v1.0.3 // indirect
	github.com/subosito/gotenv v1.2.0 // indirect
	github.com/twitchyliquid64/golang-asm v0.15.1 // indirect
	github.com/ugorji/go/codec v1.2.9 // indirect
	golang.org/x/arch v0.0.0-20210923205945-b76863e36670 // indirect
	golang.org/x/crypto v0.5.0 // indirect
	golang.org/x/net v0.7.0 // indirect
	golang.org/x/sync v0.0.0-20210220032951-036812b2e83c // indirect
	golang.org/x/sys v0.5.0 // indirect
	golang.org/x/text v0.7.0 // indirect
	google.golang.org/protobuf v1.28.1 // indirect
	gopkg.in/ini.v1 v1.51.1 // indirect
	gopkg.in/yaml.v2 v2.2.8 // indirect
	gopkg.in/yaml.v3 v3.0.1 // indirect
)
